{
    "key": "group_5cdeee029d218",
    "title": "Post options",
    "fields": [
        {
            "key": "field_5ce1285870565",
            "label": "Full Gutenberg layout",
            "name": "gutenberg_full",
            "type": "true_false",
            "instructions": "Moves the meta sidebar to the bottom of the content, so that full-width Gutenberg blocks can be used.",
            "required": 0,
            "conditional_logic": 0,
            "wrapper": {
                "width": "",
                "class": "",
                "id": ""
            },
            "message": "",
            "default_value": 0,
            "ui": 1,
            "ui_on_text": "",
            "ui_off_text": ""
        },
        {
            "key": "field_5cdeee0327c2a",
            "label": "Hide thumbnail",
            "name": "hide_thumbnail",
            "type": "true_false",
            "instructions": "",
            "required": 0,
            "conditional_logic": 0,
            "wrapper": {
                "width": "",
                "class": "",
                "id": ""
            },
            "message": "",
            "default_value": 0,
            "ui": 1,
            "ui_on_text": "",
            "ui_off_text": ""
        },
        {
            "key": "field_5ce12dd160899",
            "label": "Hide title",
            "name": "hide_title",
            "type": "true_false",
            "instructions": "Usually used when working with Gutenberg.",
            "required": 0,
            "conditional_logic": 0,
            "wrapper": {
                "width": "",
                "class": "",
                "id": ""
            },
            "message": "",
            "default_value": 0,
            "ui": 1,
            "ui_on_text": "",
            "ui_off_text": ""
        }
    ],
    "location": [
        [
            {
                "param": "post_type",
                "operator": "==",
                "value": "post"
            }
        ]
    ],
    "menu_order": 3,
    "position": "side",
    "style": "default",
    "label_placement": "top",
    "instruction_placement": "label",
    "hide_on_screen": "",
    "active": 1,
    "description": "Sidebar fields for Posts",
    "modified": 1558260740
}